-3	 -0.999979
-2.9	 -0.99996
-2.8	 -0.999925
-2.7	 -0.999866
-2.6	 -0.999764
-2.5	 -0.999593
-2.4	 -0.999311
-2.3	 -0.998857
-2.2	 -0.998137
-2.1	 -0.99702
-2	 -0.995322
-1.9	 -0.99279
-1.8	 -0.98909
-1.7	 -0.983791
-1.6	 -0.976349
-1.5	 -0.966106
-1.4	 -0.952286
-1.3	 -0.934009
-1.2	 -0.910315
-1.1	 -0.880206
-1	 -0.842702
-0.9	 -0.796909
-0.8	 -0.742102
-0.7	 -0.677802
-0.6	 -0.603856
-0.5	 -0.5205
-0.4	 -0.428392
-0.3	 -0.328627
-0.2	 -0.222703
-0.1	 -0.112463
1.52656e-15	 1.72253e-15
0.1	 0.112463
0.2	 0.222703
0.3	 0.328627
0.4	 0.428392
0.5	 0.5205
0.6	 0.603856
0.7	 0.677802
0.8	 0.742102
0.9	 0.796909
1	 0.842702
1.1	 0.880206
1.2	 0.910315
1.3	 0.934009
1.4	 0.952286
1.5	 0.966106
1.6	 0.976349
1.7	 0.983791
1.8	 0.98909
1.9	 0.99279
2	 0.995322
2.1	 0.99702
2.2	 0.998137
2.3	 0.998857
2.4	 0.999311
2.5	 0.999593
2.6	 0.999764
2.7	 0.999866
2.8	 0.999925
2.9	 0.99996
