0 	1 	0.000	0 	0
1 	0.77 	0.920	0.841 	0.460
2 	0.22 	1.426	0.909 	1.416
3 	-0.26 	1.388	0.141 	1.99
4 	-0.397 	1.025	-0.757 	1.654
5 	-0.178 	0.715	-0.959 	0.716
6 	0.151 	0.706	-0.279 	0.040
7 	0.3 	0.955	0.660 	0.246
8 	0.17 	1.211	0.989 	1.146
9 	-0.09 	1.252	0.412 	1.911
10 	-0.246 	1.067	-0.544 	1.839

