# def_integral1 = -4
# prod_psi(1) = 1.77245
# ham(1) = 0.886227
0.01 25.0025
0.11 2.30023
0.21 1.24298
0.31 0.883952
0.41 0.712256
0.51 0.617696
0.61 0.562336
0.71 0.529613
0.81 0.511142
0.91 0.502225
1.01 0.500025
1.11 0.502725
1.21 0.509112
1.31 0.51834
1.41 0.529805
1.51 0.543063
1.61 0.55778
1.71 0.573699
1.81 0.590622
1.91 0.60839
2.01 0.626878
2.11 0.645983
2.21 0.665622
2.31 0.685725
2.41 0.706234
2.51 0.727102
2.61 0.748285
2.71 0.769751
2.81 0.791468
2.91 0.813411
3.01 0.835556
3.11 0.857886
3.21 0.880382
3.31 0.903029
3.41 0.925814
3.51 0.948725
3.61 0.971752
3.71 0.994885
3.81 1.01812
3.91 1.04144
4.01 1.06484
4.11 1.08833
4.21 1.11188
4.31 1.1355
4.41 1.15919
4.51 1.18293
4.61 1.20673
4.71 1.23058
4.81 1.25448
4.91 1.27842
5.01 1.3024
5.11 1.32642
5.21 1.35048
5.31 1.37458
5.41 1.39871
5.51 1.42287
5.61 1.44706
5.71 1.47128
5.81 1.49553
5.91 1.5198
6.01 1.5441
6.11 1.56842
6.21 1.59276
6.31 1.61712
6.41 1.6415
6.51 1.6659
6.61 1.69032
6.71 1.71476
6.81 1.73921
6.91 1.76368
7.01 1.78816
7.11 1.81266
7.21 1.83717
7.31 1.8617
7.41 1.88624
7.51 1.91079
7.61 1.93535
7.71 1.95993
7.81 1.98451
7.91 2.00911
8.01 2.03371
8.11 2.05833
8.21 2.08295
8.31 2.10758
8.41 2.13223
8.51 2.15688
8.61 2.18154
8.71 2.2062
8.81 2.23088
8.91 2.25556
9.01 2.28025
9.11 2.30494
9.21 2.32964
9.31 2.35435
9.41 2.37907
9.51 2.40379
9.61 2.42851
9.71 2.45325
9.81 2.47798
9.91 2.50273
