\relax 
\bibstyle{unsrtnat}
\select@language{english}
\@writefile{toc}{\select@language{english}}
\@writefile{lof}{\select@language{english}}
\@writefile{lot}{\select@language{english}}
\newlabel{eq.f}{{1}{1}}
\@writefile{lof}{\contentsline {figure}{\numberline {1}{\ignorespaces Plot of the $\qopname  \relax o{arctan}{}$ found through the multiroot routine in GSL along with $\qopname  \relax o{arctan}{}$ from the math.h package made in gnuplot.\relax }}{1}}
\providecommand*\caption@xref[2]{\@setref\relax\@undefined{#1}}
\newlabel{fig.plot}{{1}{1}}
\newlabel{LastPage}{{}{1}}
\xdef\lastpage@lastpage{1}
\gdef\lastpage@lastpageHy{}
